<svg xmlns="http://www.w3.org/2000/svg" width="31" height="29.97">
  <path d="M7.88 14a1.61 1.61 0 1 0-1.64-1.62A1.63 1.63 0 0 0 7.88 14zm10.16 1.76a1.62 1.62 0 1 0 1.64 1.61 1.6 1.6 0 0 0-.48-1.14 1.64 1.64 0 0 0-1.16-.47zM7.88 18.99a1.62 1.62 0 1 0-1.64-1.62A1.63 1.63 0 0 0 7.88 19zm5.08-8.22a1.61 1.61 0 1 0 1.64 1.61 1.63 1.63 0 0 0-1.64-1.61zm0 4.99a1.62 1.62 0 1 0 1.64 1.61 1.63 1.63 0 0 0-1.64-1.61zm0 4.99a1.61 1.61 0 1 0 1.64 1.61 1.63 1.63 0 0 0-1.64-1.61zm-5.08 3.23a1.61 1.61 0 1 0-1.64-1.62 1.63 1.63 0 0 0 1.64 1.62zm15.25-8.22a1.62 1.62 0 1 0 1.63 1.61 1.63 1.63 0 0 0-1.63-1.61zm0-1.76a1.61 1.61 0 1 0-1.64-1.62A1.63 1.63 0 0 0 23.13 14zm-3.93-2.76a1.61 1.61 0 1 0 .48 1.14 1.6 1.6 0 0 0-.48-1.14zm-8.42-5.86h9.45a1.32 1.32 0 1 0 0-2.65h-9.45a1.32 1.32 0 1 0 0 2.65zm-3.2 2.47a1.33 1.33 0 0 0 1.34-1.33V1.31a1.34 1.34 0 0 0-2.68 0v5.21a1.33 1.33 0 0 0 1.34 1.33zm15.84 0a1.33 1.33 0 0 0 1.34-1.33V1.31a1.34 1.34 0 0 0-2.68 0v5.21a1.33 1.33 0 0 0 1.35 1.33zm4.63-5.12h-1.58a1.32 1.32 0 1 0 0 2.65h1.58a.26.26 0 0 1 .27.25v21.45a.26.26 0 0 1-.27.25H2.95a.26.26 0 0 1-.27-.25V5.63a.26.26 0 0 1 .27-.25h1.59a1.32 1.32 0 1 0 0-2.65H2.96A2.93 2.93 0 0 0 0 5.63v21.45a2.93 2.93 0 0 0 2.95 2.9h25.1a2.93 2.93 0 0 0 2.94-2.9V5.63a2.93 2.93 0 0 0-2.95-2.9z" fill="#00b8f4" fill-rule="evenodd"/>
</svg>
