<svg xmlns="http://www.w3.org/2000/svg" width="74.38" height="74.38">
  <path d="M37.19 0a37.2 37.2 0 1 0 37.19 37.19 37.23 37.23 0 0 0-37.2-37.2zm0 68.25a30.9 30.9 0 0 1-18.95-6.47l7.7-7.7-4.9-4.9-7.79 7.78a31.05 31.05 0 0 1 43.72-43.71L49.1 21.1 54 26l7.78-7.76a31.04 31.04 0 0 1-24.6 50.01zM31.9 41.54a4.88 4.88 0 0 0 4.12 5.08v-8.05a8.56 8.56 0 0 0-1.23-.35c-3.86-1.04-7.71-2.54-7.71-7.67 0-5.28 4.32-7.98 8.94-8.25v-2.97h2.28v2.97c4.58.5 8.36 2.9 8.67 8.21H41.5a3.53 3.53 0 0 0-3.2-3.7v6.83c.62.15 1.28.3 1.97.5 7.52 2.08 7.67 6.35 7.67 8.94 0 2.2-1.96 7.55-9.64 8.05v3.28h-2.27v-3.28c-5.7-.42-9.02-3.54-9.6-9.6h5.47zm4.12-14.73a3.23 3.23 0 0 0-3.47 3.2c0 1.7 1 2.5 3.47 3.09v-6.3zm2.28 19.82c1.88-.2 4.16-1.32 4.16-3.78 0-2.05-1.12-2.78-4.16-3.63v7.4z" fill="#fff" fill-rule="evenodd"/>
</svg>
