<svg xmlns="http://www.w3.org/2000/svg" width="21" height="21">
  <path d="M10.5.01A10.49 10.49 0 1 0 20.99 10.5 10.5 10.5 0 0 0 10.5.01zm0 19.21a8.72 8.72 0 1 1 8.72-8.72 8.73 8.73 0 0 1-8.72 8.72zm-1.25-2.94h2.57v-2.31H9.25v2.31zm1.34-10.99A3.7 3.7 0 0 0 6.6 9H9a1.7 1.7 0 0 1 1.69-1.95 1.23 1.23 0 0 1 1.39 1.35 2 2 0 0 1-1.2 1.62 2.94 2.94 0 0 0-1.42 2.37v.67h2.21v-.57a2.88 2.88 0 0 1 1.6-1.76 2.75 2.75 0 0 0 1.37-2.54c.01-1.16-.97-2.9-4.06-2.9z" fill="#00b8f4" fill-rule="evenodd"/>
</svg>
