<<<<<<< HEAD
<svg xmlns="http://www.w3.org/2000/svg" width="45.343" height="30.063" viewBox="0 0 45.343 30.063">
  <metadata><?xpacket begin="﻿" id="W5M0MpCehiHzreSzNTczkc9d"?>
<x:xmpmeta xmlns:x="adobe:ns:meta/" x:xmptk="Adobe XMP Core 5.6-c138 79.159824, 2016/09/14-01:09:01        ">
   <rdf:RDF xmlns:rdf="http://www.w3.org/1999/02/22-rdf-syntax-ns#">
      <rdf:Description rdf:about=""/>
   </rdf:RDF>
</x:xmpmeta>
                                                                                                    
                                                                                                    
                                                                                                    
                                                                                                    
                                                                                                    
                                                                                                    
                                                                                                    
                                                                                                    
                                                                                                    
                                                                                                    
                                                                                                    
                                                                                                    
                                                                                                    
                                                                                                    
                                                                                                    
                                                                                                    
                                                                                                    
                                                                                                    
                                                                                                    
                                                                                                    
                           
<?xpacket end="w"?></metadata>
<defs>
    <style>
      .cls-1 {
        fill: #ddd;
        fill-rule: evenodd;
      }
    </style>
  </defs>
  <path id="icon.payment" class="cls-1" d="M544.225,379.7q0,6.976,0,13.953a2.9,2.9,0,0,0,3.047,3.069h39.14a2.876,2.876,0,0,0,3.1-2.434,0.241,0.241,0,0,1,.054-0.069V379.189H544.225V379.7Zm5.675,9.867q4.244,0,8.487,0a1.432,1.432,0,1,1-.025,2.864q-2.122,0-4.244,0-2.1,0-4.2,0A1.432,1.432,0,1,1,549.9,389.564Zm38.851-21.978a2.634,2.634,0,0,0-2.2-.92q-14.367,0-28.735,0-5.313,0-10.626,0a2.835,2.835,0,0,0-2.805,2.018,5.609,5.609,0,0,0-.15.692,1.921,1.921,0,0,0-.006.313c0,1.236,0,2.471,0,3.773h45.342V369.17A9.17,9.17,0,0,0,588.751,367.586Z" transform="translate(-544.219 -366.656)"/>
=======
<svg xmlns="http://www.w3.org/2000/svg" width="45.34" height="30.06">
  <path d="M0 13.04V27a2.9 2.9 0 0 0 3.05 3.07H42.2a2.88 2.88 0 0 0 3.1-2.44.24.24 0 0 1 .06-.07V12.53H0v.51zm5.68 9.87h8.49a1.43 1.43 0 1 1-.03 2.86H5.7a1.43 1.43 0 1 1-.02-2.86zM44.53.93a2.63 2.63 0 0 0-2.2-.92H2.97a2.83 2.83 0 0 0-2.8 2.02 5.6 5.6 0 0 0-.15.7 1.92 1.92 0 0 0-.01.3v3.78h45.34V2.5a9.17 9.17 0 0 0-.82-1.58z" fill="#ddd" fill-rule="evenodd"/>
>>>>>>> 15f6c1a1bfafd4df0b0544330f87b2e010fe8f9f
</svg>
